{
 "align_labels_right": 0, 
 "creation": "2021-12-16 08:14:30.814801", 
 "custom_format": 1, 
 "disabled": 0, 
 "doc_type": "Item", 
 "docstatus": 0, 
 "doctype": "Print Format", 
 "font": "Default", 
 "format_data": "[{\"fieldname\": \"print_heading_template\", \"fieldtype\": \"Custom HTML\", \"options\": \"<div class=\\\"print-heading\\\">\\t\\t\\t\\t<h2>Item<br><small>{{ doc.name }}</small>\\t\\t\\t\\t</h2></div>\"}, {\"fieldtype\": \"Section Break\", \"label\": \"\"}, {\"fieldtype\": \"Column Break\"}, {\"print_hide\": 0, \"fieldname\": \"_custom_html\", \"options\": \"<div class=\\\"row\\\">\\n{% set codes = [1,1,1,1,1,1,1,1,1,1,1,1,1,1,1,1,1,1,1,1,1,1,1,1,1,1,1,1] %}\\n{% for code in codes %}\\n<div class=\\\"col-md-3\\\">\\n<p class=\\\"text-center\\\"> Article #: {{doc.name }} </p>\\n\\n<svg class=\\\"barcode\\\"\\n\\t\\t\\t\\tjsbarcode-margin=\\\"5\\\"\\n\\t\\t\\t\\tjsbarcode-height=\\\"75\\\"\\n\\t\\t\\t\\tjsbarcode-fontsize=\\\"12\\\"\\n\\t\\t\\t\\tjsbarcode-width=\\\"1\\\"\\n\\t\\t\\t\\tjsbarcode-flat=\\\"true\\\"\\n\\t\\t\\t\\tjsbarcode-value=\\\"{{ doc.barcode}}\\\"/>\\n\\n<p class=\\\"text-center\\\"> <b> Price: Rs. {{doc.standard_rate}} </b> </p>\\n\\n</div>\\n{% endfor %}\\n</div>\\n<script src=\\\"https://cdn.jsdelivr.net/npm/jsbarcode@3.9.0/dist/JsBarcode.all.min.js\\\"></script>\\n<script>\\nJsBarcode(\\\".barcode\\\").init();\\n</script>\", \"fieldtype\": \"HTML\", \"label\": \"Custom HTML\"}]", 
 "html": "<div class=\"row\">\n{% set codes = [1,1,1,1,1,1,1,1,1,1,1,1,1,1,1,1,1,1,1,1,1,1,1,1,1,1,1,1] %}\n{% for code in codes %}\n<div class=\"col-md-3\">\n<p class=\"text-center\"> <b>Article #: {{doc.name }} </b> </p>\n\n<svg class=\"barcode\"\n\t\t\t\tjsbarcode-margin=\"5\"\n\t\t\t\tjsbarcode-height=\"75\"\n\t\t\t\tjsbarcode-fontsize=\"12\"\n\t\t\t\tjsbarcode-width=\"1\"\n\t\t\t\tjsbarcode-flat=\"true\"\n\t\t\t\tjsbarcode-value=\"{{ doc.barcode}}\"/>\n\n<p class=\"text-center\"> <b> Price: Rs. {{doc.standard_rate}} </b> </p>\n\n</div>\n{% endfor %}\n</div>\n<script src=\"https://cdn.jsdelivr.net/npm/jsbarcode@3.9.0/dist/JsBarcode.all.min.js\"></script>\n<script>\nJsBarcode(\".barcode\").init();\n</script>", 
 "idx": 0, 
 "line_breaks": 0, 
 "modified": "2021-12-18 01:07:28.648645", 
 "modified_by": "Administrator", 
 "module": "Stock", 
 "name": "barcodePrint", 
 "owner": "Administrator", 
 "print_format_builder": 1, 
 "print_format_type": "Server", 
 "show_section_headings": 0, 
 "standard": "Yes"
}